{
  "type": "minecraft:crafting_shaped",

  "pattern":
  [
    "A", "S", "S"
  ],
  "key":
  {
    "A": {
      "item": "cropmod:elytra_armor_plate"
    },
    "S": {
      "item": "minecraft:stick"
    }
  },

  "result":
  {
    "item": "cropmod:elytra_spade"
  }
}